Preparing DHS data • siblingsurvival
…
ex.ego
#> # A tibble: 8,348 x 4,277
#>    caseid survey cluster hhnum hrnum  v004  wwgt  v006  v007   doi  v009  v010
#>    <chr>  <chr>    <dbl> <dbl> <dbl> <dbl> <dbl> <dbl> <dbl> <dbl> <dbl> <dbl>
#>  1 "    … ZZ6          1     1     2     1  1.06     6  2015  1386     6  1985
#>  2 "    … ZZ6          1     3     2     1  1.06     6  2015  1386     4  1993
#>  3 "    … ZZ6          1     4     2     1  1.06     6  2015  1386     4  1973
#>  4 "    … ZZ6          1     4     3     1  1.06     6  2015  1386     7  1989
#>  5 "    … ZZ6          1     5     1     1  1.06     6  2015  1386     2  1990
#>  6 "    … ZZ6          1     6     2     1  1.06     6  2015  1386     2  1978
#>  7 "    … ZZ6          1     6     3     1  1.06     6  2015  1386     6  1998
#>  8 "    … ZZ6          1     7     2     1  1.06     6  2015  1386     6  1994
#>  9 "    … ZZ6          1     9     5     1  1.06     6  2015  1386     4  1969
#> 10 "    … ZZ6          1    11     2     1  1.06     6  2015  1386    10  1977
#> # … with 8,338 more rows, and 4,265 more variables: v011 <dbl>, age <dbl>,
#> #   v013 <dbl>, v014 <dbl>, v015 <dbl>, v016 <dbl>, v017 <dbl>, v018 <dbl>,
#> #   v019 <dbl>, v019a <dbl>, v020 <dbl>, psu <dbl>, stratum_analysis <dbl>,
#> #   stratum_design <dbl>, v024 <dbl>, v025 <dbl>, v026 <dbl>, v027 <dbl>,
#> #   v028 <dbl>, v029 <dbl>, v030 <dbl>, v031 <dbl>, v032 <dbl>, v034 <dbl>,
#> #   v040 <dbl>, v042 <dbl>, v044 <dbl>, v101 <dbl>, v102 <dbl>, v103 <dbl>,
#> #   v104 <dbl>, v105 <dbl>, educ <dbl>, v107 <dbl>, v113 <dbl>, v115 <dbl>,
#> #   v116 <dbl>, v119 <dbl>, v120 <dbl>, v121 <dbl>, v122 <dbl>, v123 <dbl>,
#> #   v124 <dbl>, v125 <dbl>, v127 <dbl>, v128 <dbl>, v129 <dbl>, relig <dbl>,
…
